NBA
…
# Drop meanless variables
drop_cols <- c("X1", "blanl", "blank2")
org_data <- org_data %>% select(-one_of(drop_cols))

Getting feel of missing data

org_data <- as.data.frame(org_data)
miss_var_sum <- miss_var_summary(org_data)
miss_var_sum

## # A tibble: 50 x 3
##    variable n_miss pct_miss
##    <chr>     <int>    <dbl>
##  1 3P%        9275     37.6
##  2 GS         6458     26.2
##  3 3PAr       5852     23.7
##  4 3P         5764     23.3
##  5 3PA        5764     23.3
##  6 TOV%       5109     20.7
##  7 USG%       5051     20.5
##  8 TOV        5046     20.4
##  9 ORB%       3899     15.8
## 10 DRB%       3899     15.8
## # ... with 40 more rows
…
35113P%missing300NA0

Three_data %>% filter(ThreeP == 0 & ThreePA == 0) %>% count() # Exactly 3511 obs

## # A tibble: 1 x 1
##       n
##   <int>
## 1  3511

Three_data$`ThreeP%` <- replace(Three_data$`ThreeP%`, is.na(Three_data$`ThreeP%`), 0)
miss_var_summary(Three_data)

## # A tibble: 50 x 3
##    variable n_miss pct_miss
##    <chr>     <int>    <dbl>
##  1 FT%         745   3.94  
##  2 GS          694   3.67  
##  3 TwoP%       117   0.618 
##  4 ThreePAr     88   0.465 
##  5 FTr          88   0.465 
##  6 FG%          88   0.465 
##  7 eFG%         88   0.465 
##  8 TS%          76   0.402 
##  9 TOV%         61   0.322 
## 10 PER           5   0.0264
## # ... with 40 more rows
…
33803033395969733

Three_data %>% filter(Year %in% c(1995, 1996, 1997)) %>% select(Year, Player, ThreePA, ThreeP, `ThreeP%`, ThreePAr) %>% group_by(Year) %>% arrange(Year, desc(ThreePA)) %>% filter(row_number() <= 10)

## # A tibble: 30 x 6
## # Groups:   Year [3]
##     Year Player          ThreePA ThreeP `ThreeP%` ThreePAr
##    <int> <chr>             <dbl>  <dbl>     <dbl>    <dbl>
##  1  1995 John Starks         611    217     0.355    0.575
##  2  1995 Mookie Blaylock     555    199     0.359    0.463
##  3  1995 Dan Majerle         548    199     0.363    0.532
##  4  1995 Nick Van            511    183     0.358    0.462
##  5  1995 Reggie Miller*      470    195     0.415    0.43 
##  6  1995 Glen Rice           451    185     0.41     0.321
##  7  1995 Chuck Person        445    172     0.387    0.593
##  8  1995 Tim Hardaway        444    168     0.378    0.441
##  9  1995 Vernon Maxwell      441    143     0.324    0.568
## 10  1995 Nick Anderson       431    179     0.415    0.467
## # ... with 20 more rows

Three_data %>% filter(Year %in% c(1993, 1994, 1998)) %>% select(Year, Player, ThreePA, ThreeP, `ThreeP%`, ThreePAr) %>% group_by(Year) %>% arrange(Year, desc(ThreePA)) %>% filter(row_number() <= 10)

## # A tibble: 30 x 6
## # Groups:   Year [3]
##     Year Player             ThreePA ThreeP `ThreeP%` ThreePAr
##    <int> <chr>                <dbl>  <dbl>     <dbl>    <dbl>
##  1  1993 Dan Majerle            438    167     0.381    0.4  
##  2  1993 Reggie Miller*         419    167     0.399    0.351
##  3  1993 Glen Rice              386    148     0.383    0.292
##  4  1993 Danny Ainge            372    150     0.403    0.51 
##  5  1993 Vernon Maxwell         361    120     0.332    0.421
##  6  1993 Terry Porter           345    143     0.414    0.311
##  7  1993 John Starks            336    108     0.321    0.28 
##  8  1993 Chuck Person           332    118     0.355    0.266
##  9  1993 Dominique Wilkins*     316    120     0.38     0.199
## 10  1993 Mookie Blaylock        315    118     0.375    0.327
## # ... with 20 more rows
…
## # A tibble: 1 x 16
## # Groups:   Year.x [?]
##   Year.x Player ThreePA.x ThreeP.x `ThreeP%.x` ThreePAr.x Year.y ThreePA.y
##    <int> <chr>      <dbl>    <dbl>       <dbl>      <dbl>  <int>     <dbl>
## 1   1995 Mooki~       555      199       0.359      0.463   1996       623
## # ... with 8 more variables: ThreeP.y <dbl>, `ThreeP%.y` <dbl>,
## #   ThreePAr.y <dbl>, Year <int>, ThreePA <dbl>, ThreeP <dbl>,
## #   `ThreeP%` <dbl>, ThreePAr <dbl>

20162017

Three_data %>% filter(Year %in% c(2015,2016,2017)) %>% select(Year, Player, ThreePA, ThreeP, `ThreeP%`, ThreePAr) %>% group_by(Year) %>% arrange(Year, desc(ThreePA)) %>% filter(row_number() <= 10)

## # A tibble: 30 x 6
## # Groups:   Year [3]
##     Year Player           ThreePA ThreeP `ThreeP%` ThreePAr
##    <int> <chr>              <dbl>  <dbl>     <dbl>    <dbl>
##  1  2015 Stephen Curry        646    286     0.443    0.482
##  2  2015 Damian Lillard       572    196     0.343    0.421
##  3  2015 Trevor Ariza         555    194     0.35     0.61 
##  4  2015 James Harden         555    208     0.375    0.378
##  5  2015 Klay Thompson        545    239     0.439    0.42 
##  6  2015 J.J. Redick          458    200     0.437    0.488
##  7  2015 Danny Green          457    191     0.418    0.619
##  8  2015 Kyle Korver          449    221     0.492    0.748
##  9  2015 Lou Williams         447    152     0.34     0.482
## 10  2015 Robert Covington     446    167     0.374    0.59 
## # ... with 20 more rows
…
Top_300_3_pointer_seasonal %>% distinct(Player, .keep_all = TRUE) %>% group_by(Year) %>% count()

## # A tibble: 36 x 2
## # Groups:   Year [36]
##     Year     n
##    <int> <int>
##  1  1980     4
##  2  1981     1
##  3  1982     1
##  4  1983     4
##  5  1984     5
##  6  1985     4
##  7  1986     5
##  8  1987     7
##  9  1988     6
## 10  1989     8
## # ... with 26 more rows
…
Top_300_3_pointer_seasonal %>% group_by(Year)%>% filter(Year == 2012)

## # A tibble: 164 x 51
## # Groups:   Year [1]
##     Year Player   Pos     Age Tm        G GS       MP   PER `TS%` ThreePAr
##    <int> <chr>    <chr> <int> <chr> <int> <chr> <int> <dbl> <dbl>    <dbl>
##  1  2012 Arron A~ SG       26 DEN      62 62     2086  14.7 0.584    0.316
##  2  2012 Ray All~ SG       36 BOS      46 42     1565  14.8 0.607    0.475
##  3  2012 Ryan An~ PF       23 ORL      61 61     1964  21.2 0.589    0.557
##  4  2012 Carmelo~ SF       27 NYK      55 55     1876  21.1 0.525    0.198
##  5  2012 Gilbert~ PG       30 MEM      17 0       211   9.9 0.526    0.609
##  6  2012 Trevor ~ SF       26 NOH      41 41     1350  14.2 0.496    0.216
##  7  2012 D.J. Au~ PG       24 CHA      48 46     1408  14.1 0.493    0.368
##  8  2012 Leandro~ SG       29 TOT      64 0      1382  14   0.512    0.267
##  9  2012 J.J. Ba~ PG       27 MIN      41 11     1032  14.9 0.502    0.342
## 10  2012 Andrea ~ C        26 TOR      31 31     1032  17.9 0.538    0.238
## # ... with 154 more rows, and 40 more variables: FTr <dbl>, `ORB%` <dbl>,
## #   `DRB%` <dbl>, `TRB%` <dbl>, `AST%` <dbl>, `STL%` <dbl>, `BLK%` <dbl>,
## #   `TOV%` <dbl>, `USG%` <dbl>, OWS <dbl>, DWS <dbl>, WS <dbl>,
## #   `WS/48` <dbl>, OBPM <dbl>, DBPM <dbl>, BPM <dbl>, VORP <dbl>,
## #   FG <int>, FGA <int>, `FG%` <dbl>, ThreeP <dbl>, ThreePA <dbl>,
## #   `ThreeP%` <dbl>, TwoP <int>, TwoPA <int>, `TwoP%` <dbl>, `eFG%` <dbl>,
## #   FT <int>, FTA <int>, `FT%` <dbl>, ORB <dbl>, DRB <dbl>, TRB <int>,
## #   AST <int>, STL <dbl>, BLK <dbl>, TOV <dbl>, PF <int>, PTS <int>,
## #   Total_3 <dbl>
…
Cluster_result %>% group_by(clusters)  %>% summarise(mean_ThreeP = mean(ThreeP), mean_ThreePA = mean(ThreePA), mean_ThreePercent = mean(`ThreeP%`), mean_ThreePAr = mean(ThreePAr))

## # A tibble: 5 x 5
##   clusters mean_ThreeP mean_ThreePA mean_ThreePercent mean_ThreePAr
##      <int>       <dbl>        <dbl>             <dbl>         <dbl>
## 1        1        53.0         162.             0.328         0.305
## 2        2        55.7         137.             0.410         0.335
## 3        3       116.          307.             0.381         0.401
## 4        4       193.          504.             0.384         0.477
## 5        5       363           838.             0.432         0.550

cluster4 %>% group_by(Player) %>% count() %>% arrange(desc(n))

## # A tibble: 81 x 2
## # Groups:   Player [81]
##    Player               n
##    <chr>            <int>
##  1 Ray Allen            7
##  2 J.R. Smith           6
##  3 Damian Lillard       5
##  4 James Harden         5
##  5 Klay Thompson        5
##  6 Wesley Matthews      5
##  7 Damon Stoudamire     3
##  8 Dan Majerle          3
##  9 Gilbert Arenas       3
## 10 Jamal Crawford       3
## # ... with 71 more rows

cluster3 %>% group_by(Player) %>% count() %>% arrange(desc(n))

## # A tibble: 279 x 2
## # Groups:   Player [279]
##    Player               n
##    <chr>            <int>
##  1 Paul Pierce         15
##  2 Vince Carter        15
##  3 Reggie Miller*      14
##  4 Chauncey Billups    13
##  5 Jason Terry         13
##  6 Jason Kidd          12
##  7 Joe Johnson         12
##  8 Dirk Nowitzki       11
##  9 Jamal Crawford      11
## 10 Kyle Korver         11
## # ... with 269 more rows

cluster2 %>% group_by(Player) %>% count() %>% arrange(desc(n))

## # A tibble: 183 x 2
## # Groups:   Player [183]
##    Player               n
##    <chr>            <int>
##  1 Steve Kerr           9
##  2 Steve Nash           8
##  3 Jose Calderon        7
##  4 Trent Tucker         7
##  5 Wally Szczerbiak     7
##  6 Chris Mullin*        6
##  7 Dana Barros          6
##  8 James Jones          6
##  9 Jeff Hornacek        6
## 10 John Stockton*       6
## # ... with 173 more rows

cluster1 %>% group_by(Player) %>% count() %>% arrange(desc(n))

## # A tibble: 280 x 2
## # Groups:   Player [280]
##    Player               n
##    <chr>            <int>
##  1 Allen Iverson*      12
##  2 Jerry Stackhouse    12
##  3 Lamar Odom          10
##  4 Metta World         10
##  5 Mike Dunleavy       10
##  6 Rodney Rogers       10
##  7 Ron Harper          10
##  8 Toni Kukoc          10
##  9 Devin Harris         9
## 10 Jalen Rose           9
## # ... with 270 more rows
